G04*
G04 #@! TF.GenerationSoftware,Altium Limited,Altium Designer,18.0.7 (293)*
G04*
G04 Layer_Physical_Order=1*
G04 Layer_Color=255*
%FSLAX25Y25*%
%MOIN*%
G70*
G01*
G75*
%ADD10C,0.01000*%
%ADD11C,0.01600*%
G04:AMPARAMS|DCode=35|XSize=55.12mil|YSize=39.37mil|CornerRadius=9.84mil|HoleSize=0mil|Usage=FLASHONLY|Rotation=180.000|XOffset=0mil|YOffset=0mil|HoleType=Round|Shape=RoundedRectangle|*
%AMROUNDEDRECTD35*
21,1,0.05512,0.01968,0,0,180.0*
21,1,0.03543,0.03937,0,0,180.0*
1,1,0.01968,-0.01772,0.00984*
1,1,0.01968,0.01772,0.00984*
1,1,0.01968,0.01772,-0.00984*
1,1,0.01968,-0.01772,-0.00984*
%
%ADD35ROUNDEDRECTD35*%
G04:AMPARAMS|DCode=36|XSize=50mil|YSize=45.28mil|CornerRadius=6.79mil|HoleSize=0mil|Usage=FLASHONLY|Rotation=0.000|XOffset=0mil|YOffset=0mil|HoleType=Round|Shape=RoundedRectangle|*
%AMROUNDEDRECTD36*
21,1,0.05000,0.03169,0,0,0.0*
21,1,0.03642,0.04528,0,0,0.0*
1,1,0.01358,0.01821,-0.01585*
1,1,0.01358,-0.01821,-0.01585*
1,1,0.01358,-0.01821,0.01585*
1,1,0.01358,0.01821,0.01585*
%
%ADD36ROUNDEDRECTD36*%
%ADD37O,0.01378X0.08268*%
%ADD38R,0.01181X0.06299*%
%ADD39C,0.02500*%
%ADD40R,0.10000X0.10000*%
%ADD41R,0.06000X0.06000*%
%ADD42C,0.06000*%
%ADD43R,0.06000X0.06000*%
%ADD44R,0.06693X0.06693*%
%ADD45C,0.06693*%
%ADD46C,0.05000*%
%ADD47R,0.06000X0.12000*%
%ADD48R,0.06500X0.06500*%
%ADD49C,0.06500*%
%ADD50C,0.02400*%
G36*
X249174Y454451D02*
Y408094D01*
X248367Y407566D01*
X247175Y407243D01*
X246765Y407557D01*
X245914Y407910D01*
X245000Y408030D01*
X244086Y407910D01*
X243851Y407812D01*
X234081Y417581D01*
X233585Y417913D01*
X233000Y418029D01*
X204500D01*
X203915Y417913D01*
X203419Y417581D01*
X200778Y414941D01*
X200446Y414444D01*
X200330Y413859D01*
Y405641D01*
X200446Y405056D01*
X200778Y404560D01*
X204350Y400987D01*
Y398529D01*
X202222D01*
X202145Y398645D01*
X201417Y399131D01*
X200559Y399302D01*
X199701Y399131D01*
X198973Y398645D01*
X198896Y398529D01*
X160500D01*
X159915Y398413D01*
X159419Y398081D01*
X155505Y394168D01*
X155174Y393672D01*
X155096Y393279D01*
X154978Y393231D01*
X154312Y392719D01*
X153801Y392053D01*
X153480Y391277D01*
X153370Y390445D01*
Y383555D01*
X153480Y382723D01*
X153801Y381947D01*
X154312Y381281D01*
X154978Y380769D01*
X155754Y380448D01*
X156587Y380339D01*
X157419Y380448D01*
X157866Y380633D01*
X158313Y380448D01*
X159146Y380339D01*
X159978Y380448D01*
X160425Y380633D01*
X160872Y380448D01*
X161705Y380339D01*
X162537Y380448D01*
X162984Y380633D01*
X163431Y380448D01*
X164264Y380339D01*
X165096Y380448D01*
X165368Y380303D01*
X165410Y380092D01*
X165741Y379596D01*
X165848Y379525D01*
X165919Y379419D01*
X168619Y376719D01*
X169115Y376387D01*
X169700Y376271D01*
X202628D01*
X203142Y375928D01*
X204000Y375757D01*
X204858Y375928D01*
X205296Y376220D01*
X206571Y374667D01*
X163582Y331678D01*
X152500D01*
X151798Y331538D01*
X151202Y331140D01*
X139884Y319822D01*
X139702Y319897D01*
X138657Y320035D01*
X137613Y319897D01*
X136640Y319494D01*
X135805Y318853D01*
X135163Y318017D01*
X134760Y317044D01*
X134623Y316000D01*
X134760Y314956D01*
X135163Y313983D01*
X135805Y313147D01*
X136640Y312506D01*
X137613Y312103D01*
X138657Y311965D01*
X139702Y312103D01*
X140675Y312506D01*
X141510Y313147D01*
X142151Y313983D01*
X142554Y314956D01*
X142570Y315074D01*
X144587D01*
X144603Y314956D01*
X145006Y313983D01*
X145647Y313147D01*
X146483Y312506D01*
X147456Y312103D01*
X148500Y311965D01*
X149544Y312103D01*
X150517Y312506D01*
X151353Y313147D01*
X151994Y313983D01*
X152397Y314956D01*
X152534Y316000D01*
X152397Y317044D01*
X151994Y318017D01*
X151353Y318853D01*
X150517Y319494D01*
X149544Y319897D01*
X148500Y320035D01*
X148058Y319976D01*
X147048Y321795D01*
X153260Y328007D01*
X164342D01*
X165045Y328147D01*
X165640Y328545D01*
X211298Y374202D01*
X211696Y374798D01*
X211835Y375500D01*
Y380257D01*
X212131Y380701D01*
X212302Y381559D01*
X212131Y382417D01*
X211645Y383145D01*
X210917Y383631D01*
X210672Y383680D01*
X209916Y385368D01*
X209884Y385721D01*
X213581Y389419D01*
X213870Y389850D01*
X215650D01*
Y389850D01*
X218209D01*
Y389850D01*
X219679Y391165D01*
X223321D01*
X224151Y391275D01*
X224924Y391595D01*
X225588Y392105D01*
X226098Y392769D01*
X226418Y393542D01*
X226458Y393848D01*
X226858Y393928D01*
X227586Y394414D01*
X228072Y395142D01*
X228243Y396000D01*
X228072Y396858D01*
X227586Y397586D01*
X226858Y398072D01*
X226447Y398154D01*
X226418Y398371D01*
X226098Y399145D01*
X225588Y399809D01*
X225565Y399983D01*
X225661Y400107D01*
X225931Y400759D01*
X226023Y401459D01*
Y402043D01*
X221500D01*
Y403043D01*
X220500D01*
Y407330D01*
X219679D01*
X218329Y408796D01*
X218209Y409084D01*
Y414535D01*
X220028Y414971D01*
X232366D01*
X241688Y405649D01*
X241590Y405414D01*
X241470Y404500D01*
X241590Y403586D01*
X241943Y402735D01*
X242504Y402004D01*
X243235Y401443D01*
X244086Y401090D01*
X245000Y400970D01*
X245914Y401090D01*
X246765Y401443D01*
X247175Y401757D01*
X248367Y401434D01*
X249174Y400906D01*
Y398094D01*
X248367Y397566D01*
X247175Y397243D01*
X246765Y397557D01*
X245914Y397910D01*
X245000Y398030D01*
X244086Y397910D01*
X243235Y397557D01*
X242504Y396996D01*
X241943Y396265D01*
X241590Y395414D01*
X241470Y394500D01*
X241590Y393586D01*
X241943Y392735D01*
X242504Y392004D01*
X243235Y391443D01*
X244086Y391090D01*
X245000Y390970D01*
X245914Y391090D01*
X246765Y391443D01*
X247175Y391757D01*
X248367Y391434D01*
X249174Y390906D01*
Y388094D01*
X248367Y387566D01*
X247175Y387243D01*
X246765Y387557D01*
X245914Y387910D01*
X245000Y388030D01*
X244086Y387910D01*
X243235Y387557D01*
X242504Y386996D01*
X241943Y386265D01*
X241590Y385414D01*
X241470Y384500D01*
X241590Y383586D01*
X241943Y382735D01*
X242504Y382004D01*
X243235Y381443D01*
X244086Y381090D01*
X245000Y380970D01*
X245914Y381090D01*
X246765Y381443D01*
X247175Y381757D01*
X248367Y381434D01*
X249174Y380906D01*
Y309326D01*
X79325D01*
Y453951D01*
X124049Y498674D01*
X204951D01*
X249174Y454451D01*
D02*
G37*
G36*
X204350Y389850D02*
X207074D01*
X207840Y388003D01*
X201867Y382029D01*
X194695D01*
X193071Y383555D01*
Y390445D01*
X192961Y391277D01*
X192640Y392053D01*
X192129Y392719D01*
X191463Y393231D01*
X190687Y393552D01*
X191059Y395471D01*
X198976D01*
X199701Y394987D01*
X200559Y394816D01*
X201417Y394987D01*
X202142Y395471D01*
X204350D01*
Y389850D01*
D02*
G37*
%LPC*%
G36*
X174500Y490177D02*
X173678Y490069D01*
X172911Y489751D01*
X172253Y489247D01*
X171748Y488589D01*
X171431Y487822D01*
X171323Y487000D01*
X171431Y486178D01*
X171748Y485411D01*
X172253Y484753D01*
X172911Y484248D01*
X173678Y483931D01*
X174500Y483823D01*
X175322Y483931D01*
X176089Y484248D01*
X176747Y484753D01*
X177252Y485411D01*
X177569Y486178D01*
X177677Y487000D01*
X177569Y487822D01*
X177252Y488589D01*
X176747Y489247D01*
X176089Y489751D01*
X175322Y490069D01*
X174500Y490177D01*
D02*
G37*
G36*
X156400D02*
X155578Y490069D01*
X154811Y489751D01*
X154153Y489247D01*
X153648Y488589D01*
X153331Y487822D01*
X153223Y487000D01*
X153331Y486178D01*
X153648Y485411D01*
X154153Y484753D01*
X154811Y484248D01*
X155578Y483931D01*
X156400Y483823D01*
X157222Y483931D01*
X157989Y484248D01*
X158647Y484753D01*
X159151Y485411D01*
X159469Y486178D01*
X159577Y487000D01*
X159469Y487822D01*
X159151Y488589D01*
X158647Y489247D01*
X157989Y489751D01*
X157222Y490069D01*
X156400Y490177D01*
D02*
G37*
G36*
X192500Y494000D02*
X184500D01*
Y481752D01*
X184500Y481574D01*
X183734Y481200D01*
X183274Y481139D01*
X183274D01*
X183274D01*
X183274D01*
X181604Y481936D01*
X181267Y482194D01*
X180294Y482597D01*
X179250Y482734D01*
X178206Y482597D01*
X177233Y482194D01*
X176397Y481553D01*
X175756Y480717D01*
X175353Y479744D01*
X175334Y479598D01*
X173316D01*
X173297Y479744D01*
X172894Y480717D01*
X172253Y481553D01*
X171417Y482194D01*
X170444Y482597D01*
X169400Y482734D01*
X168356Y482597D01*
X167383Y482194D01*
X166674Y481650D01*
X166499Y481553D01*
X164401D01*
X164226Y481650D01*
X163517Y482194D01*
X162544Y482597D01*
X161500Y482734D01*
X160456Y482597D01*
X159483Y482194D01*
X158647Y481553D01*
X158006Y480717D01*
X157603Y479744D01*
X157466Y478700D01*
X157603Y477656D01*
X158006Y476683D01*
X158647Y475847D01*
X159483Y475206D01*
X160456Y474803D01*
X161500Y474665D01*
X162544Y474803D01*
X163517Y475206D01*
X164226Y475750D01*
X164401Y475847D01*
X166499D01*
X166674Y475750D01*
X167383Y475206D01*
X168356Y474803D01*
X169400Y474665D01*
X170444Y474803D01*
X171417Y475206D01*
X172253Y475847D01*
X172894Y476683D01*
X173297Y477656D01*
X173316Y477803D01*
X175334D01*
X175353Y477656D01*
X175756Y476683D01*
X176397Y475847D01*
X177233Y475206D01*
X178206Y474803D01*
X179250Y474665D01*
X180294Y474803D01*
X181267Y475206D01*
X182103Y475847D01*
X182744Y476683D01*
X183147Y477656D01*
X183151Y477688D01*
X184119Y479288D01*
Y479288D01*
X184119Y479288D01*
Y479288D01*
X185131Y480000D01*
X185574Y480000D01*
X192500D01*
Y494000D01*
D02*
G37*
G36*
X146400D02*
X138400D01*
Y480000D01*
X146400D01*
Y494000D01*
D02*
G37*
G36*
X123272Y478042D02*
X119728D01*
X118819Y477922D01*
X117971Y477571D01*
X117243Y477013D01*
X116685Y476285D01*
X116334Y475437D01*
X116214Y474528D01*
Y472559D01*
X116334Y471650D01*
X116685Y470802D01*
X117243Y470074D01*
X117122Y468946D01*
X116821Y468220D01*
X116720Y467457D01*
X121500D01*
Y466457D01*
D01*
Y467457D01*
X126280D01*
X126179Y468220D01*
X125878Y468946D01*
X125815Y469533D01*
X126153Y470133D01*
X127000Y471206D01*
X127878Y471381D01*
X128622Y471878D01*
X129120Y472622D01*
X129294Y473500D01*
X129120Y474378D01*
X128622Y475122D01*
X128579Y475166D01*
X127835Y475663D01*
X126957Y475837D01*
X126500D01*
X126315Y476285D01*
X125757Y477013D01*
X125029Y477571D01*
X124181Y477922D01*
X123272Y478042D01*
D02*
G37*
G36*
X185500Y469000D02*
X177500D01*
Y464244D01*
X177050Y463794D01*
X162874D01*
Y465500D01*
X154874D01*
Y457500D01*
X162874D01*
Y459206D01*
X178000D01*
X178878Y459381D01*
X179622Y459878D01*
X180744Y461000D01*
X185500D01*
Y469000D01*
D02*
G37*
G36*
X126280Y465457D02*
X122500D01*
Y462462D01*
X123272D01*
X124051Y462565D01*
X124777Y462866D01*
X125400Y463344D01*
X125878Y463967D01*
X126179Y464693D01*
X126280Y465457D01*
D02*
G37*
G36*
X120500D02*
X116720D01*
X116821Y464693D01*
X117122Y463967D01*
X117600Y463344D01*
X118223Y462866D01*
X118949Y462565D01*
X119728Y462462D01*
X120500D01*
Y465457D01*
D02*
G37*
G36*
X205772Y478042D02*
X202228D01*
X201319Y477922D01*
X200471Y477571D01*
X199743Y477013D01*
X199185Y476285D01*
X198834Y475437D01*
X198714Y474528D01*
Y472559D01*
X198834Y471650D01*
X199185Y470802D01*
X199696Y470000D01*
X199185Y469198D01*
X198834Y468351D01*
X198714Y467441D01*
Y465472D01*
X198834Y464563D01*
X199032Y464084D01*
X168084Y433136D01*
X167686Y432541D01*
X167547Y431839D01*
Y421461D01*
X166823Y420827D01*
X165990Y420717D01*
X165215Y420396D01*
X164987Y420221D01*
X164966Y420230D01*
X164264Y420322D01*
X163562Y420230D01*
X162984Y419991D01*
X162407Y420230D01*
X161705Y420322D01*
X161003Y420230D01*
X160982Y420221D01*
X160754Y420396D01*
X159978Y420717D01*
X159146Y420827D01*
X158313Y420717D01*
X157866Y420532D01*
X157419Y420717D01*
X156587Y420827D01*
X155754Y420717D01*
X154978Y420396D01*
X154312Y419885D01*
X153801Y419218D01*
X153480Y418443D01*
X153370Y417610D01*
Y410720D01*
X153480Y409888D01*
X153801Y409112D01*
X154312Y408446D01*
X154978Y407935D01*
X155754Y407614D01*
X156587Y407504D01*
X157419Y407614D01*
X157866Y407799D01*
X158313Y407614D01*
X159146Y407504D01*
X159978Y407614D01*
X160754Y407935D01*
X160982Y408110D01*
X161003Y408101D01*
X161705Y408008D01*
X162407Y408101D01*
X162984Y408340D01*
X163562Y408101D01*
X164264Y408008D01*
X164966Y408101D01*
X164987Y408110D01*
X165215Y407935D01*
X165990Y407614D01*
X166823Y407504D01*
X167655Y407614D01*
X168102Y407799D01*
X168549Y407614D01*
X169382Y407504D01*
X170214Y407614D01*
X170661Y407799D01*
X171108Y407614D01*
X171941Y407504D01*
X172773Y407614D01*
X172885Y407660D01*
X174132Y407649D01*
X175310Y407069D01*
X175414Y406914D01*
X176142Y406428D01*
X177000Y406257D01*
X177858Y406428D01*
X178586Y406914D01*
X179032Y407581D01*
X179618Y407504D01*
X180451Y407614D01*
X181226Y407935D01*
X181454Y408110D01*
X181475Y408101D01*
X182177Y408008D01*
X182879Y408101D01*
X182900Y408110D01*
X183128Y407935D01*
X183904Y407614D01*
X184736Y407504D01*
X185569Y407614D01*
X186016Y407799D01*
X186463Y407614D01*
X187295Y407504D01*
X188128Y407614D01*
X188575Y407799D01*
X189022Y407614D01*
X189854Y407504D01*
X190687Y407614D01*
X191463Y407935D01*
X192129Y408446D01*
X192640Y409112D01*
X192961Y409888D01*
X193071Y410720D01*
Y417610D01*
X192961Y418443D01*
X192640Y419218D01*
X192129Y419885D01*
X192069Y419930D01*
Y430266D01*
X191930Y430968D01*
X191673Y431352D01*
X191572Y431858D01*
X191086Y432586D01*
X190358Y433072D01*
X189500Y433243D01*
X188642Y433072D01*
X187914Y432586D01*
X187428Y431858D01*
X187257Y431000D01*
X187428Y430142D01*
X187914Y429414D01*
X188399Y429090D01*
Y423589D01*
X186605Y422816D01*
X185285Y423894D01*
Y426287D01*
X185523Y426642D01*
X185693Y427500D01*
X185523Y428358D01*
X185036Y429086D01*
X184309Y429572D01*
X183450Y429743D01*
X182954Y429644D01*
X181884Y430573D01*
X181424Y431224D01*
X181438Y431343D01*
X201217Y451121D01*
X216820D01*
X216834Y451020D01*
X217185Y450172D01*
X217743Y449444D01*
X218471Y448886D01*
X219319Y448535D01*
X220228Y448415D01*
X223772D01*
X224681Y448535D01*
X225529Y448886D01*
X226257Y449444D01*
X226815Y450172D01*
X227166Y451020D01*
X227286Y451929D01*
Y453898D01*
X227166Y454807D01*
X226815Y455655D01*
X226681Y455865D01*
X227248Y457138D01*
X227619Y457730D01*
X228378Y457881D01*
X229122Y458378D01*
X229620Y459122D01*
X229794Y460000D01*
X229620Y460878D01*
X229122Y461622D01*
X228378Y462119D01*
X227500Y462294D01*
X227000D01*
X226815Y462741D01*
X226257Y463469D01*
X225529Y464028D01*
X224681Y464379D01*
X223772Y464499D01*
X220228D01*
X219319Y464379D01*
X218471Y464028D01*
X217743Y463469D01*
X217185Y462741D01*
X216834Y461894D01*
X216714Y460984D01*
Y459016D01*
X216834Y458106D01*
X217185Y457259D01*
X217696Y456457D01*
X217185Y455655D01*
X216834Y454807D01*
X216832Y454792D01*
X200457D01*
X199754Y454652D01*
X199159Y454254D01*
X173065Y428160D01*
X171217Y428926D01*
Y431078D01*
X202112Y461973D01*
X202228Y461958D01*
X205772D01*
X206681Y462078D01*
X207529Y462429D01*
X208257Y462987D01*
X208815Y463715D01*
X209166Y464563D01*
X209286Y465472D01*
Y467441D01*
X209166Y468351D01*
X208815Y469198D01*
X208680Y469411D01*
X208852Y469937D01*
X209675Y471241D01*
X210378Y471381D01*
X211122Y471878D01*
X211619Y472622D01*
X211794Y473500D01*
X211619Y474378D01*
X211122Y475122D01*
X211079Y475166D01*
X210335Y475663D01*
X209457Y475837D01*
X209000D01*
X208815Y476285D01*
X208257Y477013D01*
X207529Y477571D01*
X206681Y477922D01*
X205772Y478042D01*
D02*
G37*
G36*
X125500Y426700D02*
X113500D01*
Y414700D01*
X125500D01*
Y426700D01*
D02*
G37*
G36*
X142250Y425250D02*
X133750D01*
Y416750D01*
X135550D01*
X135948Y414750D01*
X135857Y414712D01*
X134969Y414031D01*
X134288Y413143D01*
X133859Y412110D01*
X133713Y411000D01*
X133859Y409891D01*
X134288Y408857D01*
X134969Y407969D01*
X135857Y407288D01*
X136890Y406859D01*
X138000Y406713D01*
X139110Y406859D01*
X140143Y407288D01*
X141031Y407969D01*
X141712Y408857D01*
X142141Y409891D01*
X142287Y411000D01*
X142141Y412110D01*
X141712Y413143D01*
X141031Y414031D01*
X140143Y414712D01*
X140052Y414750D01*
X140450Y416750D01*
X142250D01*
Y425250D01*
D02*
G37*
G36*
X223321Y407330D02*
X222500D01*
Y404043D01*
X226023D01*
Y404628D01*
X225931Y405327D01*
X225661Y405979D01*
X225232Y406539D01*
X224672Y406968D01*
X224020Y407238D01*
X223321Y407330D01*
D02*
G37*
G36*
X102000Y387384D02*
X100865Y387235D01*
X99808Y386797D01*
X98900Y386100D01*
X98203Y385192D01*
X98082Y384900D01*
X95918D01*
X95797Y385192D01*
X95100Y386100D01*
X94192Y386797D01*
X93135Y387235D01*
X92000Y387384D01*
X90865Y387235D01*
X89808Y386797D01*
X88900Y386100D01*
X88203Y385192D01*
X87765Y384135D01*
X87616Y383000D01*
X87765Y381865D01*
X88203Y380808D01*
X88900Y379900D01*
X89808Y379203D01*
X90865Y378765D01*
X92000Y378616D01*
X93135Y378765D01*
X94192Y379203D01*
X95100Y379900D01*
X95797Y380808D01*
X95918Y381100D01*
X98082D01*
X98203Y380808D01*
X98900Y379900D01*
X99808Y379203D01*
X100865Y378765D01*
X102000Y378616D01*
X103135Y378765D01*
X104192Y379203D01*
X105100Y379900D01*
X105654Y380622D01*
X106280Y380614D01*
X107653Y380065D01*
Y378654D01*
X116347D01*
Y387347D01*
X107653D01*
Y385935D01*
X106280Y385385D01*
X105654Y385378D01*
X105100Y386100D01*
X104192Y386797D01*
X103135Y387235D01*
X102000Y387384D01*
D02*
G37*
G36*
X153500Y347500D02*
X145500D01*
Y339500D01*
X153500D01*
Y347500D01*
D02*
G37*
G36*
X200342Y320035D02*
X199298Y319897D01*
X198325Y319494D01*
X197490Y318853D01*
X196848Y318017D01*
X196446Y317044D01*
X196430Y316926D01*
X194413D01*
X194397Y317044D01*
X193994Y318017D01*
X193353Y318853D01*
X192517Y319494D01*
X191544Y319897D01*
X190500Y320035D01*
X189456Y319897D01*
X188483Y319494D01*
X187647Y318853D01*
X187006Y318017D01*
X186603Y317044D01*
X186587Y316926D01*
X184570D01*
X184555Y317044D01*
X184151Y318017D01*
X183510Y318853D01*
X182675Y319494D01*
X181702Y319897D01*
X180657Y320035D01*
X179613Y319897D01*
X178640Y319494D01*
X177805Y318853D01*
X177164Y318017D01*
X176760Y317044D01*
X176623Y316000D01*
X176760Y314956D01*
X177164Y313983D01*
X177805Y313147D01*
X178640Y312506D01*
X179613Y312103D01*
X180657Y311965D01*
X181702Y312103D01*
X182675Y312506D01*
X183510Y313147D01*
X184151Y313983D01*
X184555Y314956D01*
X184570Y315074D01*
X186587D01*
X186603Y314956D01*
X187006Y313983D01*
X187647Y313147D01*
X188483Y312506D01*
X189456Y312103D01*
X190500Y311965D01*
X191544Y312103D01*
X192517Y312506D01*
X193353Y313147D01*
X193994Y313983D01*
X194397Y314956D01*
X194413Y315074D01*
X196430D01*
X196446Y314956D01*
X196848Y313983D01*
X197490Y313147D01*
X198325Y312506D01*
X199298Y312103D01*
X200342Y311965D01*
X201387Y312103D01*
X202360Y312506D01*
X203195Y313147D01*
X203836Y313983D01*
X204240Y314956D01*
X204377Y316000D01*
X204240Y317044D01*
X203836Y318017D01*
X203195Y318853D01*
X202360Y319494D01*
X201387Y319897D01*
X200342Y320035D01*
D02*
G37*
%LPD*%
D10*
X169700Y377800D02*
X203800D01*
X167000Y380500D02*
X169700Y377800D01*
X201859Y413859D02*
X204500Y416500D01*
X201859Y405641D02*
X206264Y401236D01*
X201859Y405641D02*
Y413859D01*
X210000Y395500D02*
Y399500D01*
X208264Y401236D02*
X210000Y399500D01*
X206264Y401236D02*
X208264D01*
X204500Y416500D02*
X233000D01*
X205941Y397000D02*
X207441Y395500D01*
X160500Y397000D02*
X205941D01*
X156587Y393087D02*
X160500Y397000D01*
X156587Y387000D02*
Y393087D01*
X203800Y377800D02*
X204000Y378000D01*
X215118Y403118D02*
Y408886D01*
X212559Y400559D02*
X215118Y403118D01*
X212559Y395500D02*
Y400559D01*
X212500Y395441D02*
X212559Y395500D01*
X212500Y390500D02*
Y395441D01*
X202500Y380500D02*
X212500Y390500D01*
X187500Y380500D02*
X202500D01*
X204559Y408886D02*
X207441D01*
X171941Y392941D02*
X172000Y393000D01*
X171941Y387000D02*
Y392941D01*
X182177Y408323D02*
X184000Y406500D01*
X182177Y408323D02*
Y414165D01*
X162500Y421500D02*
X164264D01*
Y414165D02*
Y421500D01*
X161705Y420705D02*
X162500Y421500D01*
X161705Y414165D02*
Y420705D01*
X174500Y421000D02*
X175000Y421500D01*
X174500Y414165D02*
Y421000D01*
X177059Y419059D02*
X180000Y422000D01*
X177059Y414165D02*
Y419059D01*
X187500Y380500D02*
Y386795D01*
X187295Y387000D02*
X187500Y386795D01*
X166823Y380677D02*
Y387000D01*
X233000Y416500D02*
X245000Y404500D01*
D11*
X210000Y404000D02*
Y408886D01*
Y375500D02*
Y381500D01*
Y408886D02*
X212559D01*
X200457Y452957D02*
X221500D01*
X172000Y424500D02*
X200457Y452957D01*
X172000Y415000D02*
Y424500D01*
X169382Y414165D02*
Y431839D01*
X204000Y466457D01*
X225957Y395957D02*
X226000Y396000D01*
X221500Y395957D02*
X225957D01*
X164264Y392764D02*
X164500Y393000D01*
X164264Y387000D02*
Y392764D01*
X164342Y329842D02*
X210000Y375500D01*
X152500Y329842D02*
X164342D01*
X190234Y414165D02*
Y430266D01*
X189500Y431000D02*
X190234Y430266D01*
X138657Y316000D02*
X152500Y329842D01*
X215118Y395500D02*
X221043D01*
X187295Y414165D02*
Y419207D01*
X183450Y423053D02*
X187295Y419207D01*
X183450Y423053D02*
Y427500D01*
X177000Y414106D02*
X177059Y414165D01*
X177000Y408500D02*
Y414106D01*
D35*
X121500Y466457D02*
D03*
Y473543D02*
D03*
X222000Y452913D02*
D03*
Y460000D02*
D03*
X204000Y466457D02*
D03*
Y473543D02*
D03*
D36*
X221500Y395957D02*
D03*
Y403043D02*
D03*
D37*
X189854Y414165D02*
D03*
X187295D02*
D03*
X184736D02*
D03*
X182177D02*
D03*
X179618D02*
D03*
X177059D02*
D03*
X174500D02*
D03*
X171941D02*
D03*
X169382D02*
D03*
X166823D02*
D03*
X164264D02*
D03*
X161705D02*
D03*
X159146D02*
D03*
X156587D02*
D03*
X189854Y387000D02*
D03*
X187295D02*
D03*
X184736D02*
D03*
X182177D02*
D03*
X179618D02*
D03*
X177059D02*
D03*
X174500D02*
D03*
X171941D02*
D03*
X169382D02*
D03*
X166823D02*
D03*
X164264D02*
D03*
X161705D02*
D03*
X159146D02*
D03*
X156587D02*
D03*
D38*
X207441Y408886D02*
D03*
X210000D02*
D03*
X212559D02*
D03*
X215118D02*
D03*
X207441Y395500D02*
D03*
X210000D02*
D03*
X212559D02*
D03*
X215118Y395500D02*
D03*
D39*
X221043D02*
X221500Y395957D01*
X244500Y394000D02*
X245000Y394500D01*
X158874Y461500D02*
X178000D01*
X181500Y465000D01*
X222000Y460000D02*
X227500D01*
X204000Y473543D02*
X209457D01*
X209500Y473500D01*
X121500Y473543D02*
X126957D01*
X127000Y473500D01*
D40*
X119500Y420700D02*
D03*
Y440500D02*
D03*
D41*
X181500Y465000D02*
D03*
X149500Y343500D02*
D03*
D42*
X181500Y457126D02*
D03*
X151000Y461500D02*
D03*
X190500Y316000D02*
D03*
X180657D02*
D03*
X200342D02*
D03*
X210185D02*
D03*
X138657D02*
D03*
X148500D02*
D03*
X158343D02*
D03*
X179250Y478700D02*
D03*
X151650D02*
D03*
X169400D02*
D03*
X161500D02*
D03*
X149500Y363185D02*
D03*
D43*
X158874Y461500D02*
D03*
D44*
X112000Y383000D02*
D03*
D45*
X102000D02*
D03*
X92000D02*
D03*
D46*
X245000Y384500D02*
D03*
Y394500D02*
D03*
Y404500D02*
D03*
D47*
X142400Y487000D02*
D03*
X188500D02*
D03*
D48*
X138000Y421000D02*
D03*
D49*
Y411000D02*
D03*
D50*
X89441Y320441D02*
D03*
X91941D02*
D03*
X94441D02*
D03*
X96941D02*
D03*
X99441D02*
D03*
X89441Y322941D02*
D03*
X91941D02*
D03*
X94441D02*
D03*
X96941D02*
D03*
X99441D02*
D03*
X89441Y325941D02*
D03*
X91941D02*
D03*
X94441D02*
D03*
X96941D02*
D03*
X99441D02*
D03*
X99500Y328500D02*
D03*
X97000D02*
D03*
X94500D02*
D03*
X92000D02*
D03*
X89500D02*
D03*
X102500D02*
D03*
X105000D02*
D03*
X107500D02*
D03*
X110000D02*
D03*
X112500D02*
D03*
X112441Y325941D02*
D03*
X109941D02*
D03*
X107441D02*
D03*
X104941D02*
D03*
X102441D02*
D03*
X112441Y322941D02*
D03*
X109941D02*
D03*
X107441D02*
D03*
X104941D02*
D03*
X102441D02*
D03*
X112441Y320441D02*
D03*
X109941D02*
D03*
X107441D02*
D03*
X104941D02*
D03*
X102441D02*
D03*
X102941Y342941D02*
D03*
X105441D02*
D03*
X107941D02*
D03*
X110441D02*
D03*
X112941D02*
D03*
X102941Y345441D02*
D03*
X105441D02*
D03*
X107941D02*
D03*
X110441D02*
D03*
X112941D02*
D03*
X102941Y348441D02*
D03*
X105441D02*
D03*
X107941D02*
D03*
X110441D02*
D03*
X112941D02*
D03*
X113000Y351000D02*
D03*
X110500D02*
D03*
X108000D02*
D03*
X105500D02*
D03*
X103000D02*
D03*
X102441Y331941D02*
D03*
X104941D02*
D03*
X107441D02*
D03*
X109941D02*
D03*
X112441D02*
D03*
X102441Y334441D02*
D03*
X104941D02*
D03*
X107441D02*
D03*
X109941D02*
D03*
X112441D02*
D03*
X102441Y337441D02*
D03*
X104941D02*
D03*
X107441D02*
D03*
X109941D02*
D03*
X112441D02*
D03*
X112500Y340000D02*
D03*
X110000D02*
D03*
X107500D02*
D03*
X105000D02*
D03*
X102500D02*
D03*
X209941Y365941D02*
D03*
X212441D02*
D03*
X214941D02*
D03*
X217441D02*
D03*
X219941D02*
D03*
X220000Y368500D02*
D03*
X217500D02*
D03*
X215000D02*
D03*
X212500D02*
D03*
X210000D02*
D03*
X172000Y374000D02*
D03*
X174500D02*
D03*
X177000D02*
D03*
X179500D02*
D03*
X182000D02*
D03*
X181941Y371441D02*
D03*
X179441D02*
D03*
X176941D02*
D03*
X174441D02*
D03*
X171941D02*
D03*
X181941Y368441D02*
D03*
X179441D02*
D03*
X176941D02*
D03*
X174441D02*
D03*
X171941D02*
D03*
X181941Y365941D02*
D03*
X179441D02*
D03*
X176941D02*
D03*
X174441D02*
D03*
X171941D02*
D03*
X232500Y339500D02*
D03*
X235000D02*
D03*
X237500D02*
D03*
X240000D02*
D03*
X242500D02*
D03*
X242441Y336941D02*
D03*
X239941D02*
D03*
X237441D02*
D03*
X234941D02*
D03*
X232441D02*
D03*
X242441Y333941D02*
D03*
X239941D02*
D03*
X237441D02*
D03*
X234941D02*
D03*
X232441D02*
D03*
X242441Y331441D02*
D03*
X239941D02*
D03*
X237441D02*
D03*
X234941D02*
D03*
X232441D02*
D03*
X232500Y350500D02*
D03*
X235000D02*
D03*
X237500D02*
D03*
X240000D02*
D03*
X242500D02*
D03*
X242441Y347941D02*
D03*
X239941D02*
D03*
X237441D02*
D03*
X234941D02*
D03*
X232441D02*
D03*
X242441Y344941D02*
D03*
X239941D02*
D03*
X237441D02*
D03*
X234941D02*
D03*
X232441D02*
D03*
X242441Y342441D02*
D03*
X239941D02*
D03*
X237441D02*
D03*
X234941D02*
D03*
X232441D02*
D03*
X89500Y340000D02*
D03*
X92000D02*
D03*
X94500D02*
D03*
X97000D02*
D03*
X99500D02*
D03*
X99441Y337441D02*
D03*
X96941D02*
D03*
X94441D02*
D03*
X91941D02*
D03*
X89441D02*
D03*
X99441Y334441D02*
D03*
X96941D02*
D03*
X94441D02*
D03*
X91941D02*
D03*
X89441D02*
D03*
X99441Y331941D02*
D03*
X96941D02*
D03*
X94441D02*
D03*
X91941D02*
D03*
X89441D02*
D03*
X90000Y351000D02*
D03*
X92500D02*
D03*
X95000D02*
D03*
X97500D02*
D03*
X100000D02*
D03*
X99941Y348441D02*
D03*
X97441D02*
D03*
X94941D02*
D03*
X92441D02*
D03*
X89941D02*
D03*
X99941Y345441D02*
D03*
X97441D02*
D03*
X94941D02*
D03*
X92441D02*
D03*
X89941D02*
D03*
X99941Y342941D02*
D03*
X97441D02*
D03*
X94941D02*
D03*
X92441D02*
D03*
X89941D02*
D03*
X88500Y434500D02*
D03*
X91000D02*
D03*
X93500D02*
D03*
X96000D02*
D03*
X98500D02*
D03*
X98441Y431941D02*
D03*
X95941D02*
D03*
X93441D02*
D03*
X90941D02*
D03*
X88441D02*
D03*
X98441Y428941D02*
D03*
X95941D02*
D03*
X93441D02*
D03*
X90941D02*
D03*
X88441D02*
D03*
X98441Y426441D02*
D03*
X95941D02*
D03*
X93441D02*
D03*
X90941D02*
D03*
X88441D02*
D03*
X220000Y432000D02*
D03*
X222500D02*
D03*
X225000D02*
D03*
X227500D02*
D03*
X230000D02*
D03*
X220000Y434500D02*
D03*
X222500D02*
D03*
X225000D02*
D03*
X227500D02*
D03*
X230000D02*
D03*
X220000Y437500D02*
D03*
X222500D02*
D03*
X225000D02*
D03*
X227500D02*
D03*
X230000D02*
D03*
X230059Y440059D02*
D03*
X227559D02*
D03*
X225059D02*
D03*
X222559D02*
D03*
X220059D02*
D03*
X184059Y406559D02*
D03*
X210059Y381559D02*
D03*
Y404059D02*
D03*
X204559Y409059D02*
D03*
X200559Y397059D02*
D03*
X204000Y378000D02*
D03*
X172000Y393000D02*
D03*
X175000Y421500D02*
D03*
X226000Y396000D02*
D03*
X187500Y380500D02*
D03*
X164500Y393000D02*
D03*
X183450Y427500D02*
D03*
X189500Y431000D02*
D03*
X177000Y408500D02*
D03*
X180000Y422000D02*
D03*
X227500Y460000D02*
D03*
X209500Y473500D02*
D03*
X127000D02*
D03*
M02*
