G04*
G04 #@! TF.GenerationSoftware,Altium Limited,Altium Designer,18.0.7 (293)*
G04*
G04 Layer_Physical_Order=2*
G04 Layer_Color=16711680*
%FSLAX25Y25*%
%MOIN*%
G70*
G01*
G75*
%ADD10C,0.01000*%
%ADD11C,0.01600*%
G04:AMPARAMS|DCode=36|XSize=50mil|YSize=45.28mil|CornerRadius=6.79mil|HoleSize=0mil|Usage=FLASHONLY|Rotation=0.000|XOffset=0mil|YOffset=0mil|HoleType=Round|Shape=RoundedRectangle|*
%AMROUNDEDRECTD36*
21,1,0.05000,0.03169,0,0,0.0*
21,1,0.03642,0.04528,0,0,0.0*
1,1,0.01358,0.01821,-0.01585*
1,1,0.01358,-0.01821,-0.01585*
1,1,0.01358,-0.01821,0.01585*
1,1,0.01358,0.01821,0.01585*
%
%ADD36ROUNDEDRECTD36*%
%ADD39C,0.02500*%
%ADD40R,0.10000X0.10000*%
%ADD41R,0.06000X0.06000*%
%ADD42C,0.06000*%
%ADD43R,0.06000X0.06000*%
%ADD44R,0.06693X0.06693*%
%ADD45C,0.06693*%
%ADD46C,0.05000*%
%ADD47R,0.06000X0.12000*%
%ADD48R,0.06500X0.06500*%
%ADD49C,0.06500*%
%ADD50C,0.02400*%
G04:AMPARAMS|DCode=51|XSize=50mil|YSize=45.28mil|CornerRadius=6.79mil|HoleSize=0mil|Usage=FLASHONLY|Rotation=270.000|XOffset=0mil|YOffset=0mil|HoleType=Round|Shape=RoundedRectangle|*
%AMROUNDEDRECTD51*
21,1,0.05000,0.03169,0,0,270.0*
21,1,0.03642,0.04528,0,0,270.0*
1,1,0.01358,-0.01585,-0.01821*
1,1,0.01358,-0.01585,0.01821*
1,1,0.01358,0.01585,0.01821*
1,1,0.01358,0.01585,-0.01821*
%
%ADD51ROUNDEDRECTD51*%
G04:AMPARAMS|DCode=52|XSize=50mil|YSize=37.4mil|CornerRadius=5.61mil|HoleSize=0mil|Usage=FLASHONLY|Rotation=180.000|XOffset=0mil|YOffset=0mil|HoleType=Round|Shape=RoundedRectangle|*
%AMROUNDEDRECTD52*
21,1,0.05000,0.02618,0,0,180.0*
21,1,0.03878,0.03740,0,0,180.0*
1,1,0.01122,-0.01939,0.01309*
1,1,0.01122,0.01939,0.01309*
1,1,0.01122,0.01939,-0.01309*
1,1,0.01122,-0.01939,-0.01309*
%
%ADD52ROUNDEDRECTD52*%
%ADD53O,0.02362X0.08661*%
G04:AMPARAMS|DCode=54|XSize=86.61mil|YSize=61.02mil|CornerRadius=15.26mil|HoleSize=0mil|Usage=FLASHONLY|Rotation=0.000|XOffset=0mil|YOffset=0mil|HoleType=Round|Shape=RoundedRectangle|*
%AMROUNDEDRECTD54*
21,1,0.08661,0.03051,0,0,0.0*
21,1,0.05610,0.06102,0,0,0.0*
1,1,0.03051,0.02805,-0.01526*
1,1,0.03051,-0.02805,-0.01526*
1,1,0.03051,-0.02805,0.01526*
1,1,0.03051,0.02805,0.01526*
%
%ADD54ROUNDEDRECTD54*%
G04:AMPARAMS|DCode=55|XSize=50mil|YSize=37.4mil|CornerRadius=5.61mil|HoleSize=0mil|Usage=FLASHONLY|Rotation=90.000|XOffset=0mil|YOffset=0mil|HoleType=Round|Shape=RoundedRectangle|*
%AMROUNDEDRECTD55*
21,1,0.05000,0.02618,0,0,90.0*
21,1,0.03878,0.03740,0,0,90.0*
1,1,0.01122,0.01309,0.01939*
1,1,0.01122,0.01309,-0.01939*
1,1,0.01122,-0.01309,-0.01939*
1,1,0.01122,-0.01309,0.01939*
%
%ADD55ROUNDEDRECTD55*%
G36*
X249174Y454451D02*
Y408094D01*
X248367Y407566D01*
X247175Y407243D01*
X246765Y407557D01*
X245914Y407910D01*
X245000Y408030D01*
X244086Y407910D01*
X243235Y407557D01*
X242504Y406996D01*
X241943Y406265D01*
X241590Y405414D01*
X241470Y404500D01*
X241590Y403586D01*
X241943Y402735D01*
X242504Y402004D01*
X243235Y401443D01*
X244086Y401090D01*
X245000Y400970D01*
X245914Y401090D01*
X246765Y401443D01*
X247175Y401757D01*
X248367Y401434D01*
X249174Y400906D01*
Y398094D01*
X248367Y397566D01*
X247175Y397243D01*
X246765Y397557D01*
X245914Y397910D01*
X245000Y398030D01*
X244086Y397910D01*
X243235Y397557D01*
X242504Y396996D01*
X241943Y396265D01*
X241845Y396029D01*
X238000D01*
X237415Y395913D01*
X236919Y395581D01*
X220866Y379529D01*
X213754D01*
X213415Y379774D01*
X212296Y381529D01*
X212302Y381559D01*
X212131Y382417D01*
X211894Y382772D01*
Y402846D01*
X212131Y403201D01*
X212302Y404059D01*
X212249Y404327D01*
X214085Y405319D01*
X223844Y395560D01*
X223928Y395142D01*
X224414Y394414D01*
X225142Y393928D01*
X226000Y393757D01*
X226858Y393928D01*
X227586Y394414D01*
X228072Y395142D01*
X228243Y396000D01*
X228072Y396858D01*
X227586Y397586D01*
X226858Y398072D01*
X226440Y398156D01*
X201298Y423298D01*
X200702Y423696D01*
X200000Y423835D01*
X185525D01*
X184919Y425835D01*
X185036Y425914D01*
X185523Y426642D01*
X185693Y427500D01*
X185523Y428358D01*
X185036Y429086D01*
X184309Y429572D01*
X183890Y429656D01*
X169653Y443893D01*
X169830Y445375D01*
X171779Y446125D01*
X187344Y430560D01*
X187428Y430142D01*
X187914Y429414D01*
X188642Y428928D01*
X189500Y428757D01*
X190358Y428928D01*
X191086Y429414D01*
X191572Y430142D01*
X191743Y431000D01*
X191572Y431858D01*
X191086Y432586D01*
X190358Y433072D01*
X189940Y433156D01*
X172835Y450260D01*
Y476606D01*
X172894Y476683D01*
X173297Y477656D01*
X173316Y477803D01*
X175334D01*
X175353Y477656D01*
X175756Y476683D01*
X176397Y475847D01*
X176956Y475418D01*
Y467250D01*
X177130Y466372D01*
X177500Y465819D01*
Y461000D01*
X185500D01*
Y462706D01*
X199439D01*
X199878Y462134D01*
X200517Y461643D01*
X201262Y461335D01*
X202061Y461230D01*
X205939D01*
X206738Y461335D01*
X207483Y461643D01*
X208122Y462134D01*
X208650Y462168D01*
X217029Y453790D01*
X216974Y453372D01*
Y450754D01*
X217079Y449955D01*
X217387Y449210D01*
X217878Y448571D01*
X218517Y448080D01*
X219262Y447772D01*
X220061Y447667D01*
X223939D01*
X224738Y447772D01*
X225483Y448080D01*
X226122Y448571D01*
X226613Y449210D01*
X226921Y449955D01*
X227026Y450754D01*
Y453372D01*
X226921Y454171D01*
X226613Y454916D01*
X226308Y455865D01*
X227294Y457643D01*
X227437D01*
X228315Y457818D01*
X229059Y458315D01*
X229122Y458378D01*
X229620Y459122D01*
X229794Y460000D01*
X229620Y460878D01*
X229122Y461622D01*
X228378Y462119D01*
X227500Y462294D01*
X227183Y462231D01*
X226844D01*
X226613Y462790D01*
X226122Y463429D01*
X225483Y463920D01*
X224738Y464228D01*
X223939Y464333D01*
X220061D01*
X219262Y464228D01*
X218517Y463920D01*
X217878Y463429D01*
X217387Y462790D01*
X217375Y462761D01*
X215557Y462180D01*
X215085Y462222D01*
X210016Y467291D01*
X209272Y467789D01*
X209196Y467804D01*
X208353Y469509D01*
X209294Y471206D01*
X209500D01*
X210378Y471381D01*
X211122Y471878D01*
X211619Y472622D01*
X211794Y473500D01*
X211619Y474378D01*
X211122Y475122D01*
X210378Y475619D01*
X209500Y475794D01*
X208844D01*
X208613Y476353D01*
X208122Y476992D01*
X207483Y477483D01*
X206738Y477791D01*
X205939Y477896D01*
X202061D01*
X201262Y477791D01*
X200517Y477483D01*
X199878Y476992D01*
X199387Y476353D01*
X199079Y475608D01*
X198974Y474809D01*
Y472191D01*
X199079Y471392D01*
X199387Y470647D01*
X199735Y469563D01*
X199387Y468479D01*
X199079Y467734D01*
X199021Y467294D01*
X185500D01*
Y469000D01*
X181544D01*
Y475418D01*
X182103Y475847D01*
X182744Y476683D01*
X183147Y477656D01*
X183151Y477688D01*
X184119Y479288D01*
Y479288D01*
X184119Y479288D01*
Y479288D01*
X185131Y480000D01*
X185574Y480000D01*
X192500D01*
Y494000D01*
X184500D01*
Y481752D01*
X184500Y481574D01*
X183734Y481200D01*
X183274Y481139D01*
X183274D01*
X183274D01*
X183274D01*
X181604Y481936D01*
X181267Y482194D01*
X180294Y482597D01*
X179250Y482734D01*
X178206Y482597D01*
X177233Y482194D01*
X176397Y481553D01*
X175756Y480717D01*
X175353Y479744D01*
X175334Y479598D01*
X173316D01*
X173297Y479744D01*
X172894Y480717D01*
X172253Y481553D01*
X171417Y482194D01*
X170444Y482597D01*
X169400Y482734D01*
X168356Y482597D01*
X167383Y482194D01*
X166674Y481650D01*
X166499Y481553D01*
X164401D01*
X164226Y481650D01*
X163517Y482194D01*
X162544Y482597D01*
X161500Y482734D01*
X160456Y482597D01*
X159483Y482194D01*
X158647Y481553D01*
X158006Y480717D01*
X157603Y479744D01*
X157466Y478700D01*
X157603Y477656D01*
X158006Y476683D01*
X158647Y475847D01*
X159483Y475206D01*
X159665Y475131D01*
Y473500D01*
X159804Y472798D01*
X160202Y472202D01*
X165665Y466740D01*
Y443450D01*
X165804Y442748D01*
X166202Y442153D01*
X181004Y427351D01*
X180898Y426080D01*
X180028Y425062D01*
X179628Y424967D01*
X162835Y441760D01*
Y457000D01*
X162763Y457364D01*
X162874Y457500D01*
X162874D01*
Y465500D01*
X154874D01*
Y457500D01*
X156165D01*
Y445260D01*
X149202Y438298D01*
X148804Y437702D01*
X148665Y437000D01*
Y380500D01*
X148804Y379798D01*
X149202Y379202D01*
X168665Y359740D01*
Y339495D01*
X168804Y338793D01*
X169202Y338198D01*
X173018Y334383D01*
X172973Y334041D01*
Y330872D01*
X173082Y330042D01*
X173402Y329269D01*
X173912Y328605D01*
X174576Y328095D01*
X175349Y327775D01*
X176179Y327665D01*
X179821D01*
X180651Y327775D01*
X181424Y328095D01*
X182875Y328725D01*
X183644Y328135D01*
X184539Y327764D01*
X185500Y327638D01*
X186206Y327730D01*
X186425Y327665D01*
X186488Y327610D01*
X187150Y325736D01*
X181356Y319943D01*
X180657Y320035D01*
X179613Y319897D01*
X178640Y319494D01*
X177805Y318853D01*
X177164Y318017D01*
X176760Y317044D01*
X176623Y316000D01*
X176760Y314956D01*
X176807Y314844D01*
X175776Y313000D01*
X175556Y312844D01*
X154900D01*
X152443Y315302D01*
X152534Y316000D01*
X152397Y317044D01*
X151994Y318017D01*
X151353Y318853D01*
X150794Y319282D01*
Y339500D01*
X153500D01*
Y347500D01*
X145500D01*
Y345794D01*
X132513D01*
X112880Y365428D01*
X113014Y367278D01*
X113170Y367692D01*
X114631Y368187D01*
X114892Y368079D01*
X115691Y367974D01*
X118309D01*
X119108Y368079D01*
X119853Y368387D01*
X120492Y368878D01*
X122273Y368824D01*
X122896Y368566D01*
X123565Y368478D01*
X123874D01*
Y373000D01*
Y377522D01*
X123565D01*
X122896Y377434D01*
X122273Y377176D01*
X120492Y377122D01*
X119853Y377613D01*
X119108Y377921D01*
X118309Y378026D01*
X118087D01*
X116347Y378654D01*
X116347Y379764D01*
Y387347D01*
X107654D01*
Y387347D01*
X106050Y386877D01*
X105966Y388622D01*
X111632Y394288D01*
X111642Y394303D01*
X113759Y394585D01*
X114007Y394517D01*
X114736Y393958D01*
X115715Y393552D01*
X116766Y393414D01*
X122376D01*
X123427Y393552D01*
X124406Y393958D01*
X125247Y394603D01*
X125892Y395444D01*
X126298Y396424D01*
X126344Y396774D01*
X126878Y396881D01*
X127622Y397378D01*
X137079Y406835D01*
X138000Y406713D01*
X139110Y406859D01*
X140143Y407288D01*
X141031Y407969D01*
X141712Y408857D01*
X142141Y409891D01*
X142287Y411000D01*
X142141Y412110D01*
X141712Y413143D01*
X141031Y414031D01*
X140143Y414712D01*
X140052Y414750D01*
X140450Y416750D01*
X142250D01*
Y425250D01*
X133750D01*
Y422994D01*
X125500D01*
Y426700D01*
X114304D01*
X113500Y426700D01*
X112304Y428205D01*
Y453186D01*
X120348Y461230D01*
X123439D01*
X124238Y461335D01*
X124983Y461643D01*
X125622Y462134D01*
X126113Y462773D01*
X126421Y463518D01*
X126526Y464317D01*
Y466935D01*
X126421Y467734D01*
X126113Y468479D01*
X125808Y469428D01*
X126794Y471206D01*
X127000D01*
X127878Y471381D01*
X128622Y471878D01*
X129120Y472622D01*
X129294Y473500D01*
X129120Y474378D01*
X128622Y475122D01*
X127878Y475619D01*
X127000Y475794D01*
X126344D01*
X126113Y476353D01*
X125622Y476992D01*
X124983Y477483D01*
X124238Y477791D01*
X123439Y477896D01*
X119561D01*
X118762Y477791D01*
X118017Y477483D01*
X117378Y476992D01*
X116887Y476353D01*
X116579Y475608D01*
X116474Y474809D01*
Y472191D01*
X116579Y471392D01*
X116887Y470647D01*
X117235Y469563D01*
X116887Y468479D01*
X116579Y467734D01*
X116474Y466935D01*
Y464317D01*
X116529Y463899D01*
X108388Y455758D01*
X107890Y455014D01*
X107716Y454136D01*
Y406333D01*
X106234Y404586D01*
X100624D01*
X99573Y404448D01*
X98594Y404042D01*
X97753Y403397D01*
X97108Y402556D01*
X96702Y401577D01*
X96564Y400526D01*
Y397474D01*
X96702Y396424D01*
X96968Y395783D01*
X90378Y389193D01*
X89881Y388449D01*
X89706Y387571D01*
Y386718D01*
X88900Y386100D01*
X88203Y385192D01*
X87765Y384135D01*
X87616Y383000D01*
X87765Y381865D01*
X88203Y380808D01*
X88280Y380709D01*
X88076Y379948D01*
X87412Y379439D01*
X86902Y378774D01*
X86582Y378001D01*
X86473Y377171D01*
Y374002D01*
X86582Y373172D01*
X86902Y372399D01*
X87412Y371735D01*
X87435Y371561D01*
X87339Y371436D01*
X87069Y370784D01*
X86977Y370085D01*
Y369500D01*
X91500D01*
Y368500D01*
X92500D01*
Y364213D01*
X93321D01*
X94020Y364305D01*
X94672Y364575D01*
X95232Y365005D01*
X95661Y365564D01*
X95931Y366216D01*
X96023Y366915D01*
Y369257D01*
X98023Y369655D01*
X98080Y369517D01*
X98571Y368878D01*
X99210Y368387D01*
X99955Y368079D01*
X100754Y367974D01*
X103372D01*
X103790Y368029D01*
X129941Y341878D01*
X130685Y341381D01*
X131563Y341206D01*
X145500D01*
Y339500D01*
X146206D01*
Y319282D01*
X145647Y318853D01*
X145006Y318017D01*
X144603Y317044D01*
X144587Y316926D01*
X142570D01*
X142554Y317044D01*
X142151Y318017D01*
X141510Y318853D01*
X140675Y319494D01*
X139702Y319897D01*
X138657Y320035D01*
X137613Y319897D01*
X136640Y319494D01*
X135805Y318853D01*
X135163Y318017D01*
X134760Y317044D01*
X134623Y316000D01*
X134760Y314956D01*
X135163Y313983D01*
X135805Y313147D01*
X136640Y312506D01*
X137613Y312103D01*
X138657Y311965D01*
X139702Y312103D01*
X140675Y312506D01*
X141510Y313147D01*
X142151Y313983D01*
X142554Y314956D01*
X142570Y315074D01*
X144587D01*
X144603Y314956D01*
X145006Y313983D01*
X145647Y313147D01*
X146483Y312506D01*
X147456Y312103D01*
X148289Y311993D01*
X148770Y311562D01*
X148928Y311326D01*
X147860Y309326D01*
X79325D01*
Y453951D01*
X124049Y498674D01*
X204951D01*
X249174Y454451D01*
D02*
G37*
G36*
X159131Y440477D02*
X159291Y440367D01*
X159304Y440298D01*
X159702Y439702D01*
X177844Y421560D01*
X177928Y421142D01*
X178414Y420414D01*
X179142Y419928D01*
X180000Y419757D01*
X180858Y419928D01*
X181213Y420165D01*
X199240D01*
X211319Y408085D01*
X210327Y406249D01*
X210059Y406302D01*
X209201Y406131D01*
X208473Y405645D01*
X207987Y404917D01*
X207816Y404059D01*
X207987Y403201D01*
X208224Y402846D01*
Y382772D01*
X207987Y382417D01*
X207816Y381559D01*
X207822Y381529D01*
X207271Y380665D01*
X206992Y380486D01*
X204877Y380060D01*
X204858Y380072D01*
X204000Y380243D01*
X202250Y381405D01*
X202029Y381735D01*
Y395396D01*
X202145Y395473D01*
X202631Y396201D01*
X202802Y397059D01*
X202631Y397918D01*
X202145Y398645D01*
X201417Y399131D01*
X200559Y399302D01*
X199701Y399131D01*
X198973Y398645D01*
X198487Y397918D01*
X198316Y397059D01*
X198487Y396201D01*
X198971Y395477D01*
Y361045D01*
X198215Y360444D01*
X196971Y359923D01*
X196461Y360134D01*
X195500Y360260D01*
X194539Y360134D01*
X194029Y359923D01*
X192785Y360444D01*
X192029Y361045D01*
Y362000D01*
X191913Y362585D01*
X191581Y363081D01*
X189029Y365634D01*
Y378876D01*
X189086Y378914D01*
X189572Y379642D01*
X189743Y380500D01*
X189572Y381358D01*
X189086Y382086D01*
X188358Y382572D01*
X187500Y382743D01*
X186642Y382572D01*
X185914Y382086D01*
X185428Y381358D01*
X185257Y380500D01*
X185428Y379642D01*
X185914Y378914D01*
X185971Y378876D01*
Y365000D01*
X186087Y364415D01*
X186419Y363919D01*
X187893Y362444D01*
X187971Y361961D01*
X187877Y361550D01*
X186461Y360134D01*
X185500Y360260D01*
X184539Y360134D01*
X183644Y359763D01*
X182875Y359173D01*
X182285Y358404D01*
X181914Y357508D01*
X181787Y356547D01*
Y350248D01*
X181914Y349287D01*
X182285Y348392D01*
X182875Y347623D01*
X183644Y347033D01*
X184539Y346662D01*
X184774Y346631D01*
X187702Y343702D01*
X188298Y343304D01*
X188636Y343237D01*
X188980Y342110D01*
X188962Y341180D01*
X187797Y340527D01*
X187356Y340865D01*
X186461Y341236D01*
X185500Y341363D01*
X184539Y341236D01*
X184487Y341214D01*
X184423Y341212D01*
X183644Y341453D01*
X182492Y342041D01*
X182234Y342304D01*
X182161Y342479D01*
X181732Y343039D01*
X181172Y343468D01*
X180520Y343738D01*
X179821Y343830D01*
X179000D01*
Y339543D01*
X177000D01*
Y343830D01*
X176179D01*
X175480Y343738D01*
X174828Y343468D01*
X174335Y343090D01*
X174022Y343137D01*
X172335Y343805D01*
Y360500D01*
X172196Y361202D01*
X171798Y361798D01*
X152335Y381260D01*
Y436240D01*
X157327Y441231D01*
X159131Y440477D01*
D02*
G37*
G36*
X133750Y416750D02*
X135550D01*
X135948Y414750D01*
X135857Y414712D01*
X134969Y414031D01*
X134288Y413143D01*
X133859Y412110D01*
X133713Y411000D01*
X133835Y410079D01*
X127490Y403734D01*
X125247Y403397D01*
X124406Y404042D01*
X123427Y404448D01*
X122376Y404586D01*
X116766D01*
X115715Y404448D01*
X114736Y404042D01*
X114304Y403711D01*
X112910Y404147D01*
X112304Y404609D01*
Y413195D01*
X113500Y414700D01*
X114304Y414700D01*
X125500D01*
Y418406D01*
X133750D01*
Y416750D01*
D02*
G37*
G36*
X241943Y392735D02*
X242504Y392004D01*
X243235Y391443D01*
X244086Y391090D01*
X245000Y390970D01*
X245914Y391090D01*
X246765Y391443D01*
X247175Y391757D01*
X248367Y391434D01*
X249174Y390906D01*
Y388094D01*
X248367Y387566D01*
X247175Y387243D01*
X246765Y387557D01*
X245914Y387910D01*
X245000Y388030D01*
X244086Y387910D01*
X243235Y387557D01*
X242504Y386996D01*
X241943Y386265D01*
X241590Y385414D01*
X241470Y384500D01*
X241579Y383674D01*
X205586Y347681D01*
X203915Y348798D01*
X203899Y348835D01*
X204086Y349287D01*
X204213Y350248D01*
Y356547D01*
X204086Y357508D01*
X203715Y358404D01*
X203125Y359173D01*
X202356Y359763D01*
X202029Y359898D01*
Y374265D01*
X202250Y374595D01*
X204000Y375757D01*
X204858Y375928D01*
X205586Y376414D01*
X205624Y376471D01*
X221500D01*
X222085Y376587D01*
X222581Y376919D01*
X238633Y392971D01*
X241845D01*
X241943Y392735D01*
D02*
G37*
G36*
X248367Y381434D02*
X249174Y380906D01*
Y309326D01*
X202095D01*
X200939Y311326D01*
X201291Y311937D01*
X201538Y312166D01*
X202360Y312506D01*
X203195Y313147D01*
X203836Y313983D01*
X204240Y314956D01*
X204377Y316000D01*
X204240Y317044D01*
X203836Y318017D01*
X203195Y318853D01*
X202360Y319494D01*
X201387Y319897D01*
X200342Y320035D01*
X199622Y319940D01*
X198780Y320428D01*
X197794Y321439D01*
Y326954D01*
X197922Y327141D01*
X199500Y328144D01*
Y334500D01*
Y340679D01*
X198896Y340428D01*
X198612Y340211D01*
X198125Y340275D01*
X197356Y340865D01*
X196461Y341236D01*
X196816Y343165D01*
X205500D01*
X206202Y343304D01*
X206798Y343702D01*
X244174Y381079D01*
X245000Y380970D01*
X245914Y381090D01*
X246765Y381443D01*
X247175Y381757D01*
X248367Y381434D01*
D02*
G37*
%LPC*%
G36*
X174500Y490177D02*
X173678Y490069D01*
X172911Y489751D01*
X172253Y489247D01*
X171748Y488589D01*
X171431Y487822D01*
X171323Y487000D01*
X171431Y486178D01*
X171748Y485411D01*
X172253Y484753D01*
X172911Y484248D01*
X173678Y483931D01*
X174500Y483823D01*
X175322Y483931D01*
X176089Y484248D01*
X176747Y484753D01*
X177252Y485411D01*
X177569Y486178D01*
X177677Y487000D01*
X177569Y487822D01*
X177252Y488589D01*
X176747Y489247D01*
X176089Y489751D01*
X175322Y490069D01*
X174500Y490177D01*
D02*
G37*
G36*
X156400D02*
X155578Y490069D01*
X154811Y489751D01*
X154153Y489247D01*
X153648Y488589D01*
X153331Y487822D01*
X153223Y487000D01*
X153331Y486178D01*
X153648Y485411D01*
X154153Y484753D01*
X154811Y484248D01*
X155578Y483931D01*
X156400Y483823D01*
X157222Y483931D01*
X157989Y484248D01*
X158647Y484753D01*
X159151Y485411D01*
X159469Y486178D01*
X159577Y487000D01*
X159469Y487822D01*
X159151Y488589D01*
X158647Y489247D01*
X157989Y489751D01*
X157222Y490069D01*
X156400Y490177D01*
D02*
G37*
G36*
X146400Y494000D02*
X138400D01*
Y480000D01*
X146400D01*
Y494000D01*
D02*
G37*
G36*
X126183Y377522D02*
X125874D01*
Y374000D01*
X128766D01*
Y374939D01*
X128678Y375607D01*
X128420Y376231D01*
X128010Y376765D01*
X127475Y377176D01*
X126852Y377434D01*
X126183Y377522D01*
D02*
G37*
G36*
X128766Y372000D02*
X125874D01*
Y368478D01*
X126183D01*
X126852Y368566D01*
X127475Y368824D01*
X128010Y369234D01*
X128420Y369770D01*
X128678Y370392D01*
X128766Y371061D01*
Y372000D01*
D02*
G37*
G36*
X90500Y367500D02*
X86977D01*
Y366915D01*
X87069Y366216D01*
X87339Y365564D01*
X87768Y365005D01*
X88328Y364575D01*
X88980Y364305D01*
X89679Y364213D01*
X90500D01*
Y367500D01*
D02*
G37*
G36*
X177000Y410743D02*
X176142Y410572D01*
X175414Y410086D01*
X175371Y410022D01*
X174585Y409918D01*
X173812Y409598D01*
X173148Y409088D01*
X172974Y409065D01*
X172849Y409161D01*
X172197Y409431D01*
X171498Y409523D01*
X170913D01*
Y405000D01*
X169913D01*
Y404000D01*
X165627D01*
Y403179D01*
X165719Y402480D01*
X165989Y401828D01*
X166418Y401268D01*
X166978Y400839D01*
X167414Y400658D01*
X167658Y399735D01*
X167603Y398622D01*
X167590Y398557D01*
X167202Y398298D01*
X164060Y395156D01*
X163642Y395072D01*
X162914Y394586D01*
X162428Y393858D01*
X162257Y393000D01*
X162428Y392142D01*
X162914Y391414D01*
X163642Y390928D01*
X164500Y390757D01*
X165358Y390928D01*
X166086Y391414D01*
X166572Y392142D01*
X166656Y392560D01*
X169260Y395165D01*
X173500D01*
X174202Y395304D01*
X174798Y395702D01*
X178298Y399202D01*
X178696Y399798D01*
X178734Y399992D01*
X179415Y400082D01*
X180188Y400402D01*
X180852Y400912D01*
X181362Y401576D01*
X181682Y402349D01*
X181791Y403179D01*
Y406821D01*
X181682Y407651D01*
X181362Y408424D01*
X180852Y409088D01*
X180188Y409598D01*
X179415Y409918D01*
X178629Y410022D01*
X178586Y410086D01*
X177858Y410572D01*
X177000Y410743D01*
D02*
G37*
G36*
X168913Y409523D02*
X168329D01*
X167629Y409431D01*
X166978Y409161D01*
X166418Y408732D01*
X165989Y408172D01*
X165719Y407520D01*
X165627Y406821D01*
Y406000D01*
X168913D01*
Y409523D01*
D02*
G37*
G36*
X201500Y340679D02*
Y335500D01*
X203709D01*
Y337650D01*
X203599Y338480D01*
X203279Y339254D01*
X202769Y339918D01*
X202104Y340428D01*
X201500Y340679D01*
D02*
G37*
G36*
X203709Y333500D02*
X201500D01*
Y328321D01*
X202104Y328572D01*
X202769Y329082D01*
X203279Y329746D01*
X203599Y330520D01*
X203709Y331350D01*
Y333500D01*
D02*
G37*
%LPD*%
D10*
X204000Y378000D02*
X221500D01*
X200500Y353398D02*
Y397000D01*
X187500Y365000D02*
Y380500D01*
X190500Y353398D02*
Y362000D01*
X187500Y365000D02*
X190500Y362000D01*
X238000Y394500D02*
X245000D01*
X221500Y378000D02*
X238000Y394500D01*
D11*
X210059Y381559D02*
Y404059D01*
X161000Y441000D02*
X180000Y422000D01*
X161000Y441000D02*
Y457000D01*
X158874Y459126D02*
X161000Y457000D01*
X158000Y458252D02*
X158874Y459126D01*
X158000Y444500D02*
Y458252D01*
X150500Y437000D02*
X158000Y444500D01*
X158874Y459126D02*
Y461500D01*
X185500Y348500D02*
Y353398D01*
Y348500D02*
X189000Y345000D01*
X205500D01*
X245000Y384500D01*
X177000Y400500D02*
Y405000D01*
X173500Y397000D02*
X177000Y400500D01*
X168500Y397000D02*
X173500D01*
X164500Y393000D02*
X168500Y397000D01*
X150500Y380500D02*
Y437000D01*
Y380500D02*
X170500Y360500D01*
X169400Y478700D02*
X171000Y477100D01*
Y449500D02*
Y477100D01*
Y449500D02*
X189500Y431000D01*
X161500Y473500D02*
X167500Y467500D01*
Y443450D02*
Y467500D01*
Y443450D02*
X183450Y427500D01*
X161500Y473500D02*
Y478700D01*
X170500Y339495D02*
X177539Y332457D01*
X170500Y339495D02*
Y360500D01*
X190500Y353398D02*
X195500D01*
X177000Y405000D02*
Y408500D01*
X180000Y422000D02*
X200000D01*
X226000Y396000D01*
D36*
X178000Y332457D02*
D03*
Y339543D02*
D03*
X91500Y375587D02*
D03*
Y368500D02*
D03*
D39*
X196050Y310550D02*
X200342Y314843D01*
X153950Y310550D02*
X196050D01*
X148500Y316000D02*
X153950Y310550D01*
X200342Y314843D02*
Y316000D01*
X176500Y405000D02*
X177000D01*
X177539Y332457D02*
X178000D01*
X183457D02*
X185500Y334500D01*
X178000Y332457D02*
X183457D01*
X148500Y342500D02*
X149500Y343500D01*
X148500Y316000D02*
Y342500D01*
X208394Y465669D02*
X222000Y452063D01*
X204000Y465669D02*
X208394D01*
X203331Y465000D02*
X204000Y465669D01*
X181500Y465000D02*
X203331D01*
X179250Y467250D02*
X181500Y465000D01*
X179250Y467250D02*
Y478700D01*
X102000Y383000D02*
X102063Y382937D01*
Y373000D02*
Y382937D01*
Y373000D02*
X131563Y343500D01*
X149500D01*
X119500Y399000D02*
X119571D01*
X109937Y373000D02*
Y380937D01*
X112000Y383000D01*
X109937Y373000D02*
X117000D01*
X91500Y375587D02*
Y382500D01*
X92000Y383000D01*
Y387571D01*
X103429Y399000D01*
X119571D02*
X126000D01*
X138000Y411000D01*
X119500Y398500D02*
Y399000D01*
X118500Y420700D02*
X137700D01*
X138000Y421000D01*
X190500Y325842D02*
Y334500D01*
X180657Y316000D02*
X190500Y325842D01*
X195500Y321000D02*
Y334500D01*
X190500Y316000D02*
X195500Y321000D01*
X110010Y454136D02*
X121500Y465626D01*
X110010Y395911D02*
Y454136D01*
X102000Y387901D02*
X110010Y395911D01*
X102000Y383000D02*
Y387901D01*
X222000Y459937D02*
X227437D01*
X227500Y460000D01*
X204000Y473500D02*
X209500D01*
X121500D02*
X127000D01*
D40*
X119500Y420700D02*
D03*
Y440500D02*
D03*
D41*
X181500Y465000D02*
D03*
X149500Y343500D02*
D03*
D42*
X181500Y457126D02*
D03*
X151000Y461500D02*
D03*
X190500Y316000D02*
D03*
X180657D02*
D03*
X200342D02*
D03*
X210185D02*
D03*
X138657D02*
D03*
X148500D02*
D03*
X158343D02*
D03*
X179250Y478700D02*
D03*
X151650D02*
D03*
X169400D02*
D03*
X161500D02*
D03*
X149500Y363185D02*
D03*
D43*
X158874Y461500D02*
D03*
D44*
X112000Y383000D02*
D03*
D45*
X102000D02*
D03*
X92000D02*
D03*
D46*
X245000Y384500D02*
D03*
Y394500D02*
D03*
Y404500D02*
D03*
D47*
X142400Y487000D02*
D03*
X188500D02*
D03*
D48*
X138000Y421000D02*
D03*
D49*
Y411000D02*
D03*
D50*
X89441Y320441D02*
D03*
X91941D02*
D03*
X94441D02*
D03*
X96941D02*
D03*
X99441D02*
D03*
X89441Y322941D02*
D03*
X91941D02*
D03*
X94441D02*
D03*
X96941D02*
D03*
X99441D02*
D03*
X89441Y325941D02*
D03*
X91941D02*
D03*
X94441D02*
D03*
X96941D02*
D03*
X99441D02*
D03*
X99500Y328500D02*
D03*
X97000D02*
D03*
X94500D02*
D03*
X92000D02*
D03*
X89500D02*
D03*
X102500D02*
D03*
X105000D02*
D03*
X107500D02*
D03*
X110000D02*
D03*
X112500D02*
D03*
X112441Y325941D02*
D03*
X109941D02*
D03*
X107441D02*
D03*
X104941D02*
D03*
X102441D02*
D03*
X112441Y322941D02*
D03*
X109941D02*
D03*
X107441D02*
D03*
X104941D02*
D03*
X102441D02*
D03*
X112441Y320441D02*
D03*
X109941D02*
D03*
X107441D02*
D03*
X104941D02*
D03*
X102441D02*
D03*
X102941Y342941D02*
D03*
X105441D02*
D03*
X107941D02*
D03*
X110441D02*
D03*
X112941D02*
D03*
X102941Y345441D02*
D03*
X105441D02*
D03*
X107941D02*
D03*
X110441D02*
D03*
X112941D02*
D03*
X102941Y348441D02*
D03*
X105441D02*
D03*
X107941D02*
D03*
X110441D02*
D03*
X112941D02*
D03*
X113000Y351000D02*
D03*
X110500D02*
D03*
X108000D02*
D03*
X105500D02*
D03*
X103000D02*
D03*
X102441Y331941D02*
D03*
X104941D02*
D03*
X107441D02*
D03*
X109941D02*
D03*
X112441D02*
D03*
X102441Y334441D02*
D03*
X104941D02*
D03*
X107441D02*
D03*
X109941D02*
D03*
X112441D02*
D03*
X102441Y337441D02*
D03*
X104941D02*
D03*
X107441D02*
D03*
X109941D02*
D03*
X112441D02*
D03*
X112500Y340000D02*
D03*
X110000D02*
D03*
X107500D02*
D03*
X105000D02*
D03*
X102500D02*
D03*
X209941Y365941D02*
D03*
X212441D02*
D03*
X214941D02*
D03*
X217441D02*
D03*
X219941D02*
D03*
X220000Y368500D02*
D03*
X217500D02*
D03*
X215000D02*
D03*
X212500D02*
D03*
X210000D02*
D03*
X172000Y374000D02*
D03*
X174500D02*
D03*
X177000D02*
D03*
X179500D02*
D03*
X182000D02*
D03*
X181941Y371441D02*
D03*
X179441D02*
D03*
X176941D02*
D03*
X174441D02*
D03*
X171941D02*
D03*
X181941Y368441D02*
D03*
X179441D02*
D03*
X176941D02*
D03*
X174441D02*
D03*
X171941D02*
D03*
X181941Y365941D02*
D03*
X179441D02*
D03*
X176941D02*
D03*
X174441D02*
D03*
X171941D02*
D03*
X232500Y339500D02*
D03*
X235000D02*
D03*
X237500D02*
D03*
X240000D02*
D03*
X242500D02*
D03*
X242441Y336941D02*
D03*
X239941D02*
D03*
X237441D02*
D03*
X234941D02*
D03*
X232441D02*
D03*
X242441Y333941D02*
D03*
X239941D02*
D03*
X237441D02*
D03*
X234941D02*
D03*
X232441D02*
D03*
X242441Y331441D02*
D03*
X239941D02*
D03*
X237441D02*
D03*
X234941D02*
D03*
X232441D02*
D03*
X232500Y350500D02*
D03*
X235000D02*
D03*
X237500D02*
D03*
X240000D02*
D03*
X242500D02*
D03*
X242441Y347941D02*
D03*
X239941D02*
D03*
X237441D02*
D03*
X234941D02*
D03*
X232441D02*
D03*
X242441Y344941D02*
D03*
X239941D02*
D03*
X237441D02*
D03*
X234941D02*
D03*
X232441D02*
D03*
X242441Y342441D02*
D03*
X239941D02*
D03*
X237441D02*
D03*
X234941D02*
D03*
X232441D02*
D03*
X89500Y340000D02*
D03*
X92000D02*
D03*
X94500D02*
D03*
X97000D02*
D03*
X99500D02*
D03*
X99441Y337441D02*
D03*
X96941D02*
D03*
X94441D02*
D03*
X91941D02*
D03*
X89441D02*
D03*
X99441Y334441D02*
D03*
X96941D02*
D03*
X94441D02*
D03*
X91941D02*
D03*
X89441D02*
D03*
X99441Y331941D02*
D03*
X96941D02*
D03*
X94441D02*
D03*
X91941D02*
D03*
X89441D02*
D03*
X90000Y351000D02*
D03*
X92500D02*
D03*
X95000D02*
D03*
X97500D02*
D03*
X100000D02*
D03*
X99941Y348441D02*
D03*
X97441D02*
D03*
X94941D02*
D03*
X92441D02*
D03*
X89941D02*
D03*
X99941Y345441D02*
D03*
X97441D02*
D03*
X94941D02*
D03*
X92441D02*
D03*
X89941D02*
D03*
X99941Y342941D02*
D03*
X97441D02*
D03*
X94941D02*
D03*
X92441D02*
D03*
X89941D02*
D03*
X88500Y434500D02*
D03*
X91000D02*
D03*
X93500D02*
D03*
X96000D02*
D03*
X98500D02*
D03*
X98441Y431941D02*
D03*
X95941D02*
D03*
X93441D02*
D03*
X90941D02*
D03*
X88441D02*
D03*
X98441Y428941D02*
D03*
X95941D02*
D03*
X93441D02*
D03*
X90941D02*
D03*
X88441D02*
D03*
X98441Y426441D02*
D03*
X95941D02*
D03*
X93441D02*
D03*
X90941D02*
D03*
X88441D02*
D03*
X220000Y432000D02*
D03*
X222500D02*
D03*
X225000D02*
D03*
X227500D02*
D03*
X230000D02*
D03*
X220000Y434500D02*
D03*
X222500D02*
D03*
X225000D02*
D03*
X227500D02*
D03*
X230000D02*
D03*
X220000Y437500D02*
D03*
X222500D02*
D03*
X225000D02*
D03*
X227500D02*
D03*
X230000D02*
D03*
X230059Y440059D02*
D03*
X227559D02*
D03*
X225059D02*
D03*
X222559D02*
D03*
X220059D02*
D03*
X184059Y406559D02*
D03*
X210059Y381559D02*
D03*
Y404059D02*
D03*
X204559Y409059D02*
D03*
X200559Y397059D02*
D03*
X204000Y378000D02*
D03*
X172000Y393000D02*
D03*
X175000Y421500D02*
D03*
X226000Y396000D02*
D03*
X187500Y380500D02*
D03*
X164500Y393000D02*
D03*
X183450Y427500D02*
D03*
X189500Y431000D02*
D03*
X177000Y408500D02*
D03*
X180000Y422000D02*
D03*
X227500Y460000D02*
D03*
X209500Y473500D02*
D03*
X127000D02*
D03*
D51*
X177000Y405000D02*
D03*
X169913D02*
D03*
D52*
X121500Y465626D02*
D03*
Y473500D02*
D03*
X204000Y465626D02*
D03*
Y473500D02*
D03*
X222000Y452063D02*
D03*
Y459937D02*
D03*
D53*
X200500Y334500D02*
D03*
X195500D02*
D03*
X190500D02*
D03*
X185500D02*
D03*
X200500Y353398D02*
D03*
X195500D02*
D03*
X190500D02*
D03*
X185500D02*
D03*
D54*
X103429Y399000D02*
D03*
X119571D02*
D03*
D55*
X102063Y373000D02*
D03*
X109937D02*
D03*
X117000D02*
D03*
X124874D02*
D03*
M02*
